<?xml version='1.0' encoding='UTF-8'?>
<glyph format="1" name="g.sups">
  <advance width="365" />
  <outline>
    <contour>
      <point name="hintSet0000" type="line" x="318" y="705" />
      <point type="line" x="303" y="669" />
      <point type="line" x="299" y="669" />
      <point x="286" y="695" />
      <point x="260" y="713" />
      <point type="curve" x="232" y="713" />
      <point x="139" y="713" />
      <point x="56" y="615" />
      <point type="curve" x="56" y="495" />
      <point x="56" y="422" />
      <point x="91" y="380" />
      <point type="curve" x="150" y="380" />
      <point x="186" y="380" />
      <point x="219" y="394" />
      <point type="curve" x="249" y="418" />
      <point type="line" x="253" y="418" />
      <point type="line" x="238" y="370" />
      <point x="224" y="328" />
      <point x="196" y="303" />
      <point type="curve" x="159" y="303" />
      <point x="126" y="303" />
      <point x="93" y="319" />
      <point type="curve" x="65" y="337" />
      <point type="line" x="26" y="272" />
      <point x="68" y="241" />
      <point x="117" y="228" />
      <point type="curve" x="156" y="228" />
      <point x="247" y="228" />
      <point x="310" y="276" />
      <point type="curve" x="330" y="375" />
      <point type="line" x="396" y="705" />
    </contour>
    <contour>
      <point type="curve" x="190" y="458" />
      <point x="169" y="458" />
      <point x="155" y="473" />
      <point type="curve" x="155" y="507" />
      <point x="155" y="579" />
      <point x="194" y="634" />
      <point type="curve" x="238" y="634" />
      <point x="252" y="634" />
      <point x="268" y="625" />
      <point type="curve" x="278" y="604" />
      <point type="line" x="257" y="493" />
      <point x="237" y="466" />
      <point x="212" y="458" />
    </contour>
  </outline>
  <lib>
    <dict>
      <key>com.adobe.type.autohint</key>
      <data>
        <hintSetList id="32ab78209202383d7dd9a98417d98a0770ad8fe16fb8e2b209cab59384372ccc56c8854393851f68c49c08c0fb45a176642048f0097dd3eb991593acedc65195">
          <hintset pointTag="hintSet0000">
            <hstem pos="228" width="75" />
            <hstem pos="380" width="78" />
            <hstem pos="634" width="79" />
            <vstem pos="56" width="99" />
          </hintset>
        </hintSetList>
      </data>
    </dict>
  </lib>
</glyph>